<?xml version="1.0" encoding="UTF-8" standalone="no"?>
<!-- Generator: Adobe Illustrator 15.1.0, SVG Export Plug-In . SVG Version: 6.00 Build 0)  -->

<svg
   xmlns:dc="http://purl.org/dc/elements/1.1/"
   xmlns:cc="http://creativecommons.org/ns#"
   xmlns:rdf="http://www.w3.org/1999/02/22-rdf-syntax-ns#"
   xmlns:svg="http://www.w3.org/2000/svg"
   xmlns="http://www.w3.org/2000/svg"
   xmlns:sodipodi="http://sodipodi.sourceforge.net/DTD/sodipodi-0.dtd"
   xmlns:inkscape="http://www.inkscape.org/namespaces/inkscape"
   version="1.1"
   x="0px"
   y="0px"
   width="610"
   height="500"
   viewBox="0 0 610 500"
   enable-background="new 0 0 622 452"
   xml:space="preserve"
   id="svg2"
   inkscape:version="0.91 r13725"
   sodipodi:docname="git-freshly-made-gitlab-repo.svg"><metadata
     id="metadata134"><rdf:RDF><cc:Work
         rdf:about=""><dc:format>image/svg+xml</dc:format><dc:type
           rdf:resource="http://purl.org/dc/dcmitype/StillImage" /><dc:title /></cc:Work></rdf:RDF></metadata><defs
     id="defs132" /><sodipodi:namedview
     pagecolor="#ffffff"
     bordercolor="#666666"
     borderopacity="1"
     objecttolerance="10"
     gridtolerance="10"
     guidetolerance="10"
     inkscape:pageopacity="0"
     inkscape:pageshadow="2"
     inkscape:window-width="1859"
     inkscape:window-height="1176"
     id="namedview130"
     showgrid="false"
     fit-margin-top="0"
     fit-margin-left="0"
     fit-margin-right="0"
     fit-margin-bottom="0"
     inkscape:zoom="1.6943279"
     inkscape:cx="316.21076"
     inkscape:cy="217.75423"
     inkscape:window-x="1981"
     inkscape:window-y="24"
     inkscape:window-maximized="1"
     inkscape:current-layer="svg2" /><g
     id="g3400"><g
       transform="translate(-4.1425018,-9)"
       id="g3573"><g
         id="g3564"><g
           transform="translate(0,250)"
           id="g3490"><rect
             style="fill:#ffffff;stroke:#000000;stroke-miterlimit:10"
             x="7"
             y="12"
             stroke-miterlimit="10"
             width="603.78497"
             height="244"
             id="rect3492" /></g><g
           transform="translate(0,250)"
           id="g3494"><path
             style="fill:#b5b5b5;stroke:#ffffff;stroke-miterlimit:10"
             inkscape:connector-curvature="0"
             id="path3496"
             d="m 598,63 c 0,-8.284 -6.716,-15 -15,-15 l -385,0 c -8.284,0 -15,6.716 -15,15 l 0,167 c 0,8.284 6.716,15 15,15 l 385,0 c 8.284,0 15,-6.716 15,-15 l 0,-167 z"
             stroke-miterlimit="10" /><rect
             style="fill:none"
             id="rect3498"
             height="28"
             width="70"
             y="59"
             x="197" /><text
             style="font-size:18px;font-family:Consolas"
             id="text3500"
             font-size="18"
             transform="translate(197,71.4199)">.git</text>
</g><text
           style="font-size:13.5px;font-family:Helvetica"
           id="text3502"
           font-size="13.5"
           x="16"
           y="278.707">git@git.geomar.de:vlad/planets.git</text>
</g><g
         id="g3504"><g
           id="Layer_6"><rect
             style="fill:#ffffff;stroke:#000000;stroke-miterlimit:10"
             id="rect5"
             height="244"
             width="603.78497"
             stroke-miterlimit="10"
             y="12"
             x="7" /></g><g
           id="g8"><path
             stroke-miterlimit="10"
             d="m 598,63 c 0,-8.284 -6.716,-15 -15,-15 l -385,0 c -8.284,0 -15,6.716 -15,15 l 0,167 c 0,8.284 6.716,15 15,15 l 385,0 c 8.284,0 15,-6.716 15,-15 l 0,-167 z"
             id="path10"
             inkscape:connector-curvature="0"
             style="fill:#b5b5b5;stroke:#ffffff;stroke-miterlimit:10" /><rect
             x="197"
             y="59"
             width="70"
             height="28"
             id="rect12"
             style="fill:none" /><text
             transform="translate(197,71.4199)"
             font-size="18"
             id="text14"
             style="font-size:18px;font-family:Consolas">.git</text>
</g><rect
           x="16"
           y="19"
           width="195.58501"
           height="24.448999"
           id="rect16"
           style="fill:none" /><text
           y="28.707001"
           x="16"
           font-size="13.5"
           id="text18"
           style="font-size:13.5px;font-family:Helvetica">~/vlad/planets</text>
<g
           id="Layer_3"><g
             id="g37"><linearGradient
               y2="179.23489"
               x2="303.49899"
               y1="123.9863"
               x1="303.49899"
               gradientUnits="userSpaceOnUse"
               id="SVGID_1_"><stop
                 id="stop40"
                 style="stop-color:#C4C4C4"
                 offset="0.0982" /><stop
                 id="stop42"
                 style="stop-color:#686868"
                 offset="0.5326" /><stop
                 id="stop44"
                 style="stop-color:#000000"
                 offset="1" /></linearGradient><path
               style="fill:url(#SVGID_1_);stroke:#231f20;stroke-miterlimit:10"
               inkscape:connector-curvature="0"
               id="path46"
               d="m 253.453,178.205 c 0,-9.264 22.404,-16.777 50.047,-16.777 27.643,0 50.045,7.514 50.045,16.777 l 0,1.029 c 0,0 0,-2.115 0,-3.117 0,-1.007 0,-35.745 0,-35.745 l 0,0.394 c 0,-9.27 -22.402,-16.78 -50.045,-16.78 -27.643,0 -50.047,7.51 -50.047,16.78 l 0,-0.394 c 0,0 0,34.519 0,35.733 0,1.205 0,3.129 0,3.129 l 0,-1.029 z"
               stroke-miterlimit="10" /><g
               id="g48"><path
                 style="fill:#ffffff;stroke:#231f20;stroke-miterlimit:10"
                 inkscape:connector-curvature="0"
                 id="path50"
                 d="m 353.545,140.373 c 0,0 0,34.738 0,35.745 0,1.002 0.355,3.117 0.355,3.117 0,9.27 -22.758,16.779 -50.4,16.779 -27.642,0 -50.4,-7.51 -50.4,-16.779 0,0 0.354,-1.924 0.354,-3.129 0,-1.214 0,-35.733 0,-35.733 0,9.274 22.404,16.785 50.047,16.785 27.643,0 50.044,-7.511 50.044,-16.785 z"
                 stroke-miterlimit="10" /></g></g><g
             id="g52"><polygon
               style="fill:#ffffff;stroke:#000000;stroke-miterlimit:10"
               id="polygon54"
               points="328.542,149.459 341.719,134.965 282.411,134.965 269.235,149.459 "
               stroke-miterlimit="10" /><line
               style="fill:none;stroke:#70bf41;stroke-width:2"
               id="line56"
               y2="140.894"
               x2="331.16501"
               y1="140.894"
               x1="282.41101" /></g></g><g
           id="Layer_4"><linearGradient
             y2="112.9126"
             x2="537.17682"
             y1="57.660198"
             x1="537.17682"
             gradientUnits="userSpaceOnUse"
             id="SVGID_2_"><stop
               id="stop60"
               style="stop-color:#C4C4C4"
               offset="0.0982" /><stop
               id="stop62"
               style="stop-color:#686868"
               offset="0.5326" /><stop
               id="stop64"
               style="stop-color:#000000"
               offset="1" /></linearGradient><path
             style="fill:url(#SVGID_2_);stroke:#231f20;stroke-miterlimit:10"
             inkscape:connector-curvature="0"
             id="path66"
             d="m 487.13,111.882 c 0,-9.268 22.407,-16.781 50.047,-16.781 27.641,0 50.047,7.513 50.047,16.781 l 0,1.03 c 0,0 0,-2.118 0,-3.121 0,-1.003 0,-35.739 0,-35.739 l 0,0.388 c 0,-9.268 -22.406,-16.781 -50.047,-16.781 -27.64,0 -50.047,7.513 -50.047,16.781 l 0,-0.388 c 0,0 0,34.519 0,35.728 0,1.209 0,3.132 0,3.132 l 0,-1.03 z"
             stroke-miterlimit="10" /><g
             id="g68"><path
               style="fill:#ffffff;stroke:#231f20;stroke-miterlimit:10"
               inkscape:connector-curvature="0"
               id="path70"
               d="m 587.021,151.283 c 0,0 0,34.738 0,35.74 0,1.002 0.354,3.121 0.354,3.121 0,9.268 -22.76,16.779 -50.4,16.779 -27.64,0 -50.399,-7.512 -50.399,-16.779 0,0 0.353,-1.924 0.353,-3.133 0,-1.209 0,-35.729 0,-35.729 0,9.268 22.407,16.781 50.047,16.781 27.638,0.001 50.045,-7.512 50.045,-16.78 z"
               stroke-miterlimit="10" /></g><g
             id="g72"><path
               style="fill:#ffffff;stroke:#231f20;stroke-miterlimit:10"
               inkscape:connector-curvature="0"
               id="path74"
               d="m 587.021,112.601 c 0,0 0,34.736 0,35.739 0,1.002 0.354,3.121 0.354,3.121 0,9.268 -22.76,16.779 -50.4,16.779 -27.64,0 -50.399,-7.512 -50.399,-16.779 0,0 0.353,-1.923 0.353,-3.132 0,-1.209 0,-35.728 0,-35.728 0,9.268 22.407,16.78 50.047,16.78 27.638,0 50.045,-7.512 50.045,-16.78 z"
               stroke-miterlimit="10" /></g><g
             id="g76"><path
               style="fill:#ffffff;stroke:#231f20;stroke-miterlimit:10"
               inkscape:connector-curvature="0"
               id="path78"
               d="m 587.021,73.628 c 0,0 0,34.737 0,35.739 0,1.002 0.354,3.12 0.354,3.12 0,9.269 -22.76,16.781 -50.4,16.781 -27.64,0 -50.399,-7.513 -50.399,-16.781 0,0 0.353,-1.922 0.353,-3.131 0,-1.209 0,-35.728 0,-35.728 0,9.268 22.407,16.78 50.047,16.78 27.638,0.001 50.045,-7.512 50.045,-16.78 z"
               stroke-miterlimit="10" /></g><g
             id="g80"><polygon
               style="fill:#ffffff;stroke:#000000;stroke-miterlimit:10"
               id="polygon82"
               points="560.039,80.875 573.216,66.381 513.908,66.381 500.732,80.875 "
               stroke-miterlimit="10" /><line
               style="fill:none;stroke:#70bf41;stroke-width:2"
               id="line84"
               y2="72.310997"
               x2="562.66199"
               y1="72.310997"
               x1="513.90802" /></g></g><g
           id="Layer_1"><g
             id="g87"><rect
               style="fill:#dcdee0"
               id="rect89"
               height="128"
               width="100"
               y="85"
               x="24" /><rect
               style="fill:none;stroke:#85888d;stroke-width:2"
               id="rect91"
               height="128"
               width="100"
               y="85"
               x="24" /><line
               style="fill:none;stroke:#000000;stroke-width:2"
               id="line93"
               y2="105"
               x2="111"
               y1="105"
               x1="37" /><line
               style="fill:none;stroke:#000000;stroke-width:2"
               id="line95"
               y2="111"
               x2="111"
               y1="111"
               x1="37" /><line
               style="fill:none;stroke:#000000;stroke-width:2"
               id="line97"
               y2="117"
               x2="111"
               y1="117"
               x1="37" /><line
               style="fill:none;stroke:#70bf41;stroke-width:2"
               id="line99"
               y2="129"
               x2="111"
               y1="129"
               x1="37" /></g></g><g
           id="Layer_2"><g
             id="g102"><rect
               style="fill:#45beee"
               id="rect104"
               height="30.604"
               width="45.956001"
               y="136.76801"
               x="150.871" /><polygon
               style="fill:#45beee"
               id="polygon106"
               points="234.02,151.163 193.467,121.571 193.467,181.695 " /></g><rect
             style="fill:none"
             id="rect108"
             height="14"
             width="52.743"
             y="146.069"
             x="164" /><text
             style="font-size:12px;font-family:Consolas"
             id="text110"
             font-size="12"
             transform="translate(164,154.3496)">git add</text>
<g
             id="g112"><rect
               style="fill:#45beee"
               id="rect114"
               height="30.604"
               width="45.956001"
               y="136.76801"
               x="381.25101" /><polygon
               style="fill:#45beee"
               id="polygon116"
               points="464.399,151.163 423.847,121.571 423.847,181.695 " /></g><rect
             style="fill:none"
             id="rect118"
             height="14"
             width="85.542"
             y="146.069"
             x="376.98001" /><text
             style="font-size:12px;font-family:Consolas"
             id="text120"
             font-size="12"
             transform="translate(386.7637,154.3496)">git commit</text>
<rect
             style="fill:none"
             id="rect122"
             height="17"
             width="147"
             y="206"
             x="229" /><text
             style="font-size:12px;font-family:Helvetica"
             id="text124"
             font-size="12"
             transform="translate(269.4766,214.6279)">staging area</text>
<rect
             style="fill:none"
             id="rect126"
             height="17"
             width="147"
             y="219"
             x="464.785" /><text
             style="font-size:12px;font-family:Helvetica"
             id="text128"
             font-size="12"
             transform="translate(511.9414,227.6279)">repository</text>
</g></g></g></g></svg>